…
    stock_names <- stocks %>% 
      filter(date == ymd("2017-03-02")) %>% 
      distinct(stock) %>% 
      mutate(stock = as.character(stock)) %>% 
      pull(stock)

    #pca_stocks$ind
    as_tibble(pca_stocks$ind) %>% 
      mutate(stock = stock_names) %>% 
      select(stock, everything()) %>% 
      janitor::clean_names() %>% 
      arrange(desc(dist)) %>% 
      select(stock, dist) 

    ## # A tibble: 234 x 2
    ##    stock     dist
    ##    <chr>    <dbl>
    ##  1 googl.us 18.8 
    ##  2 amzn.us  18.8 
    ##  3 snap.us  11.9 
    ##  4 amd.us    5.28
    ##  5 bac.us    5.23
    ##  6 gs.us     4.69
    ##  7 tsla.us   4.68
    ##  8 brk-b.us  2.95
    ##  9 ibm.us    2.94
    ## 10 amgn.us   2.93
    ## # ... with 224 more rows
…
